C:\Users\ASUS\Documents\NetBeansProjects\File\OXOOP\src\main\java\com\kim\oxoop\Player.java
C:\Users\ASUS\Documents\NetBeansProjects\File\OXOOP\src\main\java\com\kim\oxoop\Game.java
C:\Users\ASUS\Documents\NetBeansProjects\File\OXOOP\src\main\java\com\kim\oxoop\Board.java
C:\Users\ASUS\Documents\NetBeansProjects\File\OXOOP\src\main\java\com\kim\oxoop\OXOOP.java
